EFISCEN

Region,Owner,Site,Species
Baden-W,no owner class,no site class(ALL),Spruce
Age min,Age max,Area (ha),Volume (m3/ha),Increment (m3/ha/year)
0,20,79506,64,0
21,40,142638,279.7,20.47
41,60,95757,446.2,16.97
61,80,114211,553.8,13.92
81,100,80268,585.1,10.66
101,120,34330,597.4,8.62
121,140,13967,572.6,7.13
141,160,4574,454.5,5.55
161,180,2170,422.1,5.65
181,200,0,0,0
201,220,0,0,0
221,240,0,0,0
